{
    "key": "group_60c5cb7001df6",
    "title": "אודות",
    "fields": [
        {
            "key": "field_60c5cb78e3cd7",
            "label": "טקסט",
            "name": "about_cats_text",
            "type": "wysiwyg",
            "instructions": "",
            "required": 0,
            "conditional_logic": 0,
            "wrapper": {
                "width": "",
                "class": "",
                "id": ""
            },
            "default_value": "",
            "tabs": "all",
            "toolbar": "full",
            "media_upload": 1,
            "delay": 0
        },
        {
            "key": "field_60c5cb8be3cd8",
            "label": "קטגוריות חוגים",
            "name": "about_cats_chosen",
            "type": "taxonomy",
            "instructions": "",
            "required": 0,
            "conditional_logic": 0,
            "wrapper": {
                "width": "",
                "class": "",
                "id": ""
            },
            "taxonomy": "class_cat",
            "field_type": "checkbox",
            "add_term": 1,
            "save_terms": 0,
            "load_terms": 0,
            "return_format": "object",
            "multiple": 0,
            "allow_null": 0
        }
    ],
    "location": [
        [
            {
                "param": "page_template",
                "operator": "==",
                "value": "views\/about.php"
            }
        ]
    ],
    "menu_order": 0,
    "position": "normal",
    "style": "default",
    "label_placement": "top",
    "instruction_placement": "label",
    "hide_on_screen": "",
    "active": true,
    "description": "",
    "modified": 1623575659
}